%YAML 1.1
%TAG !u! tag:unity3d.com,2011:
--- !u!1045 &1
EditorBuildSettings:
  m_ObjectHideFlags: 0
  serializedVersion: 2
  m_Scenes:
  - enabled: 1
    path: Assets/Scenes/SimpleAR/SimpleAR.unity
    guid: 99c9720ab356a0642a771bea13969a05
  m_configObjects:
    Unity.XR.WindowsMR.Settings: {fileID: 11400000, guid: c52d3bb36b4c86f47af54ab9c7a02589,
      type: 2}
    UnityEditor.XR.ARCore.ARCoreSettings: {fileID: 11400000, guid: f8ce26fe3bc69499b9be4b2378e97a94,
      type: 2}
    UnityEditor.XR.ARKit.ARKitSettings: {fileID: 11400000, guid: 98c79e8cc22674a89a95a3a90e2b70cb,
      type: 2}
    com.unity.xr.arfoundation.simulation_settings: {fileID: 11400000, guid: 302e9f36808117f4184b07b05ca5bb47,
      type: 2}
    com.unity.xr.arkit.PlayerSettings: {fileID: 11400000, guid: 2d5fb8e61571b4e3897f221189089fd6,
      type: 2}
    com.unity.xr.management.loader_settings: {fileID: 11400000, guid: e2f869774b12e400996eb546603602e3,
      type: 2}
    com.unity.xr.openxr.settings4: {fileID: 11400000, guid: 2d2dec64879445247bb34603b4469c6c,
      type: 2}
